Jorge Mendes - Usando R para acessar google sheet
…
Autorização para a manipulação da planilha.

Após a primeira autênticação as requisições passam ser autorizadas via console do RStudio.

A função sheet_properties mostra quais são as planilhas que estão na pasta de trabalho.

sheet_properties(url_dados)

# A tibble: 25 x 8
   name        index         id type  visible grid_rows grid_columns data  
   <chr>       <int>      <int> <chr> <lgl>       <int>        <int> <list>
 1 País            0          0 GRID  TRUE         1000           26 <NULL>
 2 Copa_Final      1  739370969 GRID  TRUE         1000           26 <NULL>
 3 Artilheiros     2  332312744 GRID  TRUE         1000           26 <NULL>
 4 Disputas        3 1811446063 GRID  TRUE         1000           26 <NULL>
 5 1930            4 1245394281 GRID  TRUE         1000           26 <NULL>
 6 1934            5  199002872 GRID  TRUE         1000           26 <NULL>
 7 1938            6  659891394 GRID  TRUE         1000           26 <NULL>
 8 1950            7 1547033404 GRID  TRUE         1000           26 <NULL>
 9 1954            8  946131332 GRID  TRUE         1000           26 <NULL>
10 1958            9   35115059 GRID  TRUE         1000           26 <NULL>
# ... with 15 more rows
…
